219398 848888 525
381596 904360 525
180404 291115 443
482944 703511 509
104729 539839 470
48452 894108 525
160707 843505 525
888080 908269 445
656673 857841 525
233478 166272 443
192648 57570 383
730154 571964 509
810029 326367 509
467247 620919 470
768000 378285 509
92589 858937 525
611236 543972 452
72933 76743 325
81459 661226 509
699289 964014 525
990787 158372 525
492205 786979 509
871920 503783 525
629146 487319 509
154457 662624 509
516766 828095 509
380584 783227 509
662408 214926 509
323758 141813 443
802646 619248 509
664755 903103 525
187354 336997 443
561570 541933 452
674730 969978 525
687324 919883 525
858421 26301 525
866532 241317 525
214874 178097 373
639090 690370 442
913092 241458 525
608179 580311 434
848238 201640 525
267008 717035 509
996809 761089 525
297671 924934 525
800764 284428 509
632677 503821 509
197108 551538 470
384069 605644 470
135254 905666 525
568695 909944 525
300570 733248 509
303551 155927 443
212177 629110 509
617157 693041 509
135550 375938 443
26632 417326 449
799233 444517 509
170639 940284 525
308810 526573 470
569288 507397 470
219649 153666 386
835512 491543 509
573858 181113 470
455633 377592 449
561584 658566 509
347445 459957 449
767354 732510 424
267879 54124 443
675955 16090 509
782079 598370 509
309123 728164 509
619423 192144 470
385794 773958 509
917389 13953 525
537316 798107 509
502075 942956 525
992621 85403 525
684987 411976 509
112128 789347 509
265939 746279 509
727580 896191 525
493391 117849 449
79009 770446 509
24937 453437 449
966277 101955 525
890674 900557 383
747661 472094 509
669713 348642 509
893641 458029 525
978788 247170 525
499400 908770 525
728566 83750 509
526301 831596 509
791031 651235 504
861169 314047 525
125235 389926 443
998877 790959 525
514895 477619 470
124297 914830 525
393891 303377 441
325581 989176 525
686093 496307 509
93557 828425 509
654690 898333 525
756209 81340 509
185835 16817 383
779567 867787 525
747844 347 509
531639 659820 509
31577 288203 443
903557 790300 525
648825 608725 509
423593 741195 509
44331 73298 340
820159 275358 509
695307 807676 504
763507 717465 424
658134 371359 509
347082 809692 509
135831 558732 470
220200 753256 509
386166 526154 470
818864 992548 525
732882 459882 509
691200 461023 509
196460 262145 443
535922 93172 470
306777 37254 443
59992 413728 449
763742 547267 509
742358 142982 509
899911 69356 525
727405 367840 509
188844 380134 443
269670 121561 443
556909 610423 434
75322 778596 509
394278 663749 509
562522 331432 470
144135 204770 383
248938 151471 443
169891 168529 334
824438 291134 509
578302 733073 509
773710 336302 509
519401 894850 525
355773 1655 443
19329 270777 443
946350 251600 525
21056 251120 443
295669 254386 407
930889 643882 525
788173 486369 509
547713 557278 421
46883 522578 470
227513 802594 509
427774 733776 509
131383 359127 443
63475 370830 443
259275 371536 441
985919 380534 525
770983 773283 393
402644 406368 405
162382 828460 509
535119 771476 509
696939 410470 509
35382 185856 383
884414 621652 525
208906 286308 443
931593 938042 414
377453 368187 423
889773 534007 525
318827 154386 443
207190 986663 525
428031 147348 449
481221 883906 525
690191 924785 525
277262 291539 389
98279 426401 449
180634 744951 509
228579 291245 443
537155 542033 408
827322 64365 509
924783 641078 525
363264 701595 509
976415 187510 525
306154 648651 509
512374 480522 470
1392 241850 443
991641 995434 365
87383 359581 443
677551 276900 509
750124 466789 509
965133 184695 525
565502 511393 470
310570 145812 443
260652 418879 449
205306 329487 443
629117 694590 442
426715 783612 509
12714 898696 525
492640 720267 509
591653 55234 470
874551 683582 525
8186 628736 509
365726 664273 509
170681 109558 383
518047 465242 470
168712 683635 509
787455 808207 468
248803 19504 443
693718 404773 509
566301 603472 434
537212 866762 525
962263 92172 525
339572 308080 384
324806 233155 407
136466 717030 509
384269 125038 443
