914814 456790 525
955366 890189 507
271080 380288 441
623176 576366 447
92435 763415 509
750472 194245 509
133929 435276 449
450748 616406 470
645524 473257 509
718915 188672 509
66220 856071 525
614680 330320 470
242433 441791 449
663472 756221 504
410384 832674 509
804984 762786 468
473978 673020 509
663651 942296 525
332867 265353 407
562263 809860 509
539256 963631 525
140987 972915 525
973505 471883 525
679180 372084 509
209669 914174 525
997325 556231 525
445171 409644 449
648063 397477 509
829519 589917 509
425638 706340 509
306076 719442 509
987759 820954 525
296120 837143 509
910146 682047 525
135371 203742 383
365588 455104 449
24860 36493 324
52253 160970 383
334949 64800 443
245662 531182 470
562268 528327 452
186601 992685 525
431391 470032 444
272937 568876 470
715429 822800 468
589738 736140 509
309301 843367 525
821796 653873 504
549810 157953 470
461579 72814 449
847540 763265 525
271745 710210 509
55985 575932 470
896390 872509 445
252696 467084 449
949867 365160 525
633197 16634 509
208219 466066 449
684151 486510 509
631858 501718 509
900673 562963 525
864676 605812 525
377509 221497 443
843330 412513 525
243800 578938 470
706363 404789 509
932578 510833 525
263 985640 525
960153 666646 525
378883 68961 443
376658 446937 449
381820 520208 470
679633 266328 509
740207 980796 525
222728 18656 386
743903 264479 509
506132 155452 449
574213 560244 421
94146 719297 509
24498 764840 509
171927 645559 509
561482 426984 470
333464 100046 443
473803 931599 525
578288 743080 509
576245 404831 470
308389 374451 441
568209 399092 470
44026 229264 386
15430 177218 383
464981 282668 449
699218 721589 504
176662 372737 443
780343 903735 525
277188 676742 509
302829 305140 340
586325 540097 452
75785 314532 443
377666 704578 509
393393 902886 525
931776 860269 476
392299 769563 509
178630 213209 373
55494 397875 443
244127 802588 509
921146 117803 525
538385 877809 525
264317 994260 525
908446 266644 525
129464 338240 443
599013 535955 452
938642 981423 507
986638 984203 427
379236 579973 470
809503 7417 509
632078 226154 509
170598 605659 470
485151 391223 449
489289 379493 449
989013 9931 525
371847 410163 449
147972 92032 375
439524 434879 400
84277 752352 509
234834 571894 470
928525 466924 525
162967 243982 443
783994 558700 509
441109 194999 449
545934 605336 452
890432 482137 525
905922 823901 525
523397 75905 470
340199 205477 443
967522 842034 507
383331 253794 441
832055 738359 468
619700 894274 525
876378 706392 525
759830 585950 509
203995 830356 509
404826 176283 443
53341 348275 443
496526 58719 449
642393 177364 509
214776 115552 383
292959 575120 470
360399 923076 525
677404 768651 504
294946 861894 525
322449 420021 449
322252 615116 470
791876 565105 509
943010 525537 525
849988 202721 525
529228 596953 452
766688 310413 509
252567 528076 470
641228 495194 509
100472 298180 443
910427 358916 525
306613 439407 449
577214 71778 470
820977 737189 468
481725 433443 444
723093 439614 509
142797 367117 443
561532 826522 509
763787 144519 509
730707 4150 509
777906 90738 509
675113 453950 509
910376 328860 525
265248 340433 407
975961 677918 525
469543 648818 509
865165 521940 525
148657 87438 375
938040 32178 525
457833 633502 509
763031 204812 509
274070 302464 389
538187 16264 470
956233 434634 525
175022 853821 525
101651 936268 525
748540 322181 509
167995 239967 443
63204 625670 470
925314 160891 525
791636 428351 509
964742 764493 525
964860 454228 525
295795 584790 470
799083 241254 509
300592 903870 525
838261 380561 525
952256 853099 507
662108 217012 509
957112 539332 525
679004 950035 525
152556 934817 525
333389 587981 470
198634 158471 370
430600 943757 525
214368 576766 470
882514 37568 525
761583 365684 509
543313 510426 470
105420 440012 449
279845 579123 470
852507 88332 525
150185 418614 449
971645 835905 525
975714 317971 525
820756 404528 509
68188 253779 443
443714 335610 449
420046 651029 509
462837 800285 509
416835 755039 509
540683 412927 470
733120 250965 509
35727 99409 351
219485 425533 449
486479 845267 525
369374 486349 449
12331 410116 449
954268 696015 525
917273 442017 525
271561 84363 443
436895 894204 525
584194 486441 470
198961 518016 470
134089 533138 470
144318 438053 449
881754 414397 525
912212 80048 525
986417 226164 525
255062 891837 525
378499 447999 449
175179 840492 525
695780 608898 509
127966 556212 470
35346 118056 354
937518 781975 525
899140 16104 525
625265 90150 470
121646 877448 525
762601 172949 509
