643016 828635 504
530728 688892 509
20884 587844 470
856564 671965 525
27422 308865 443
185313 605552 470
728170 34054 509
757445 740511 424
910499 656297 525
193515 128129 383
407047 791064 509
894150 735891 525
22405 111012 354
388832 578097 470
160693 767444 509
761011 342703 509
841256 311433 525
488923 801465 509
789654 600333 509
522340 459653 470
74712 814959 509
412350 167173 449
517764 587155 452
584152 738040 509
332073 612014 470
672659 340378 509
32485 746578 509
928512 173965 525
776610 932773 525
556527 715049 509
651821 428720 509
663088 302802 509
259620 937427 525
148261 666762 509
818242 146565 509
341188 924591 525
169287 40673 383
538718 628544 509
823855 433661 509
519269 485911 470
730966 438969 509
596738 690012 509
386893 441742 449
144071 818893 509
909797 608668 525
629482 102367 509
810643 245648 509
312470 994543 525
945850 469811 525
65894 378009 443
450188 999704 525
944582 937359 507
274019 949103 525
939926 349888 525
679971 809617 504
843867 752746 525
30164 402514 443
784371 58657 509
460630 776822 509
15470 959267 525
311572 374663 441
390534 991969 525
392803 281714 441
738529 800496 468
494455 369251 449
841377 766464 525
996122 582199 525
731694 667356 504
100539 722141 509
447231 290704 449
229159 99919 386
982076 747508 525
75181 901862 525
831934 600613 509
893455 935487 476
631884 721182 504
225977 636669 509
521427 495532 470
126044 763349 509
326647 758156 509
58889 665098 509
975923 704246 525
142973 610059 470
846695 627222 525
510979 300501 449
87229 81801 333
38136 559236 470
417481 170635 449
668336 115527 509
778966 149619 509
904332 532420 525
150331 159938 383
962535 679681 525
180420 923515 525
784068 994538 525
197119 402165 443
365183 701326 509
416857 974002 525
736097 249599 509
493650 860655 525
405629 354850 436
808823 847627 525
313499 927196 525
456280 252519 449
572044 46173 470
865145 711084 525
312193 82906 443
414183 268155 449
131770 906900 525
978426 221428 525
205469 235897 443
272724 96484 443
787593 715199 468
247076 731100 509
334406 969171 525
515293 162924 470
468022 844142 525
216275 751372 509
11524 204904 383
560757 623976 447
630793 791101 504
853759 636112 525
477874 318167 449
272092 169058 443
118026 228029 386
663688 984356 525
876927 747649 525
996219 707331 525
200291 771852 509
577930 83230 470
541190 447783 470
263038 749317 509
48793 438239 449
786492 565504 509
962290 251074 525
326175 35678 443
98740 597108 470
555623 186061 470
332793 524561 470
749945 654117 504
997011 631680 525
840320 58134 525
782333 480151 509
617549 574839 447
792276 651311 504
738080 334290 509
505345 460508 444
379124 169579 443
948394 412156 525
460382 782832 509
687177 16571 509
920908 18773 525
756522 7067 509
422615 378579 449
285468 56529 443
295944 450074 449
852236 546574 525
346682 549436 470
970172 442665 525
400917 639527 509
365395 668521 509
592003 363387 470
34503 36544 324
585108 848154 525
957071 744876 525
760237 131886 509
588755 901337 525
757671 541180 509
635366 667557 442
454402 886194 525
403072 736358 509
199146 687369 509
496042 984200 525
782208 938354 525
50825 248246 443
309234 105193 443
730042 658425 504
454154 946662 525
476410 291071 449
328351 764380 509
840623 437221 525
846674 637541 525
60649 65415 335
514276 30919 470
143597 347900 443
805285 360474 509
522575 25750 470
618282 620756 372
369899 574444 470
405754 408071 361
883735 157804 525
189792 235563 443
520157 323039 470
907576 279036 525
346466 264190 441
9115 601675 470
122052 798373 509
921421 167369 525
810932 299253 509
889972 448954 525
710011 135130 509
330224 979405 525
409388 521914 470
497178 571974 470
583062 574396 390
58857 487539 449
19125 582612 470
444495 969335 525
356888 466523 449
564014 386029 470
827291 227014 509
81824 174964 383
444592 146914 449
564210 812802 509
943025 179650 525
366386 962355 525
645743 561463 509
322484 151442 443
451071 950516 525
795525 652196 504
134373 615791 470
523521 718240 509
462499 81345 449
395050 431079 449
337166 681919 509
653538 816605 504
916538 413025 525
827496 480979 509
992007 429397 525
280612 37822 443
247690 298161 407
792895 285904 509
723158 659447 504
54159 54286 260
333415 215303 443
136157 704844 509
109968 598182 470
530413 64054 470
930760 913227 476
582282 546748 421
944510 662476 525
686317 18505 509
28980 970868 525
142468 979280 525
813640 763183 468
254845 938498 525
876197 415650 525
412152 309948 449
540960 335271 470
945867 874173 507
45096 309089 443
603417 400527 470
900983 754007 525
54090 449794 449
834241 131698 509
322456 186223 443
285767 368471 441
660411 268277 509
230780 460275 449
354847 376380 410
390014 516311 470
752244 544041 509
883593 49091 525
169954 701218 509
235274 582869 470
478098 876956 525
188010 50720 383
984718 926622 507
501718 623274 470
875725 137129 525
577658 260609 470
371875 387524 423
791202 557755 509
482908 723973 509
584647 205097 470
723885 315693 509
83044 948070 525
881175 295919 525
776984 244278 509
600034 81201 470
380702 376068 423
144220 208700 383
300556 983149 525
656136 99204 509
850072 370472 525
539817 138924 470
243844 292559 407
598639 578619 434
430409 572600 470
54936 300598 443
719058 650519 504
679982 167640 509
543523 998350 525
280834 881559 525
325718 374440 441
607478 466933 470
686664 920790 525
603697 769096 509
825683 259453 509
105999 755102 509
