116640 1924
276083 24461
620807 34672
223623 600192
812648 556829
301971 24168
133242 235958
344794 887062
231790 715310
816928 357111
135981 262274
172509 977497
720896 947863
283420 700580
521706 193576
660605 235356
399079 243196
934691 18372
932125 977034
882209 104037
444670 262549
105362 504102
739264 470639
346590 247355
741037 131758
572601 472158
258662 773125
14179 995300
998935 573742
775038 516885
854589 523295
45082 783071
955051 896544
911015 169698
850309 558515
184364 598187
371812 42576
535116 53166
487816 551691
490184 960663
69119 104041
157909 930331
122674 983819
165310 699254
35497 847734
330990 490783
741315 639245
736058 361470
424764 482192
668586 380569
617616 770946
445253 223225
484659 714298
575022 380635
436894 247523
101361 989460
223062 876722
214145 702522
63556 446265
270313 467979
566905 646529
311136 455921
365799 254561
191313 777296
585801 2220
62854 130027
311628 561386
365899 999177
16215 508847
956358 790628
144327 270413
379012 291274
110682 739800
481727 590874
732726 496751
656203 171183
731274 986937
511139 143550
923642 37104
672569 812199
346656 449627
353041 302550
837903 394920
401087 444535
202865 260157
103438 231121
357481 913308
34438 688550
240020 643964
88612 915610
322180 885603
995844 655999
766030 203659
658787 784843
161674 287247
156051 199086
300757 928404
566824 43382
171599 799168
4045 785157
160977 57398
973445 188918
143968 777458
642595 229039
113030 386839
989949 804173
847695 287713
22806 612172
266066 479144
472721 835578
971140 778989
309556 753282
488093 418491
614964 488914
525545 842572
68834 356973
462146 113087
864797 605289
830643 141072
829510 811716
995900 706141
921537 245871
6892 79579
687659 960412
795686 300692
747048 474951
148150 338298
157387 235454
808798 993607
887305 738626
352671 389232
82049 879395
80699 711790
716741 362564
152930 953920
102106 653704
405654 562022
772278 981775
378421 836294
809850 728292
47512 189959
1785 461912
74795 562682
242981 4840
511582 172751
446356 80901
842574 160525
306853 459365
583225 603996
178619 941912
282909 22118
422041 706932
1271 8382
649299 341322
891829 158938
870448 329447
807450 493620
312132 202929
236709 951638
440865 275812
201780 325777
803347 61858
755265 26225
550552 625951
262192 647371
369937 691237
499200 885682
522951 469689
752492 612915
49473 551865
164060 104822
551860 68676
848690 920976
259968 857747
768531 378067
900168 859937
927356 5606
430271 229542
116766 726687
579403 554839
754224 503780
524992 510638
478423 291759
82206 925120
374409 475276
84984 871086
721291 237061
612274 470743
597420 486617
829314 231474
767244 860535
351116 712562
636809 124189
901574 59823
862925 573766
478545 286533
747085 17600
105279 921288
219197 951650
605293 544770
338878 922007
954292 802567
47128 323673
991803 12935
267599 336866
639740 643803
315103 926219
491260 258795
346623 207394
692145 799589
470178 902949
837520 525857
382805 512218
390930 369104
634767 459649
870590 389128
320887 712967
97030 931468
921189 517093
354698 335291
339982 581303
317736 248065
766703 907521
659829 401814
568936 320883
957105 686203
598591 247177
646018 88891
565822 898745
781861 353153
226789 638310
559202 966805
452640 88237
65411 205312
610603 445679
918284 341322
929888 897779
905052 350725
34067 272348
945755 37666
113499 369969
641807 713211
190840 141353
107889 396551
430293 439925
339503 453346
292129 671116
16685 918397
956708 937816
814655 659014
779860 870884
693292 901374
960109 107225
969136 903987
545170 67531
624615 498251
376217 188074
73111 5778
411315 849343
139924 627096
